Geospatial Analysis with R
…
##    user  system elapsed 
##   0.937   0.187   1.271

sp versus sf 2

dists_sf

## Simple feature collection with 72 features and 1 field
## geometry type:  POLYGON
## dimension:      XY
## bbox:           xmin: 21.99953 ymin: -18.0762 xmax: 33.70588 ymax: -8.226213
## epsg (SRID):    4326
## proj4string:    +proj=longlat +datum=WGS84 +no_defs
## # A tibble: 72 x 2
##         distName          geometry
##            <chr>  <simple_feature>
##  1       Chadiza <POLYGON ((32...>
##  2         Chama <POLYGON ((32...>
##  3       Chavuma <POLYGON ((23...>
##  4      Chibombo <POLYGON ((28...>
##  5       Chiengi <POLYGON ((29...>
##  6 Chililabombwe <POLYGON ((27...>
##  7       Chilubi <POLYGON ((30...>
##  8      Chingola <POLYGON ((27...>
##  9      Chinsali <POLYGON ((32...>
## 10       Chipata <POLYGON ((32...>
## # ... with 62 more rows
…
