…
---

#### # 2 Reshape

So that price and element have their own columns
```{r, eval=FALSE}
tb_df2 <- tb_df %>% 
  pivot_wider(names_from = valu, values_from = element) %>% 
  arrange(-group)
tb_df2
```

Result should look like this:
```
# A tibble: 50 x 4
    year group Price Weight
   <dbl> <chr> <dbl>  <dbl>
 1  1960 a      70.3   79.9
 2  1962 a      64.7   86.6
 3  1974 a      66.7   58.7
 4  1977 a      93.2   75.6
 5  1984 a      66.3   82.1
 6  1988 a      56.1   76.3
 7  1997 a      72.8   58.8
 8  1951 b      73.9   82.7
 9  1952 b      93.1   67.7
10  1955 b      53.5   81.7
# … with 40 more rows
```
---

#### # 3 Make a new variable 

Make `tb_df2` have a `wt_price` column that is the ratio of weight to price (weight / price) 
```{r, eval=FALSE}
tb_df3 <- tb_df2 %> 
  select(wt_price = Weight / Price)
tb_df3
```

Result should look like this:
```
# A tibble: 50 x 5
    year group Price Weight wt_price
   <dbl> <chr> <dbl>  <dbl>    <dbl>
 1  1960 a      70.3   79.9    1.14 
 2  1962 a      64.7   86.6    1.34 
 3  1974 a      66.7   58.7    0.880
 4  1977 a      93.2   75.6    0.811
 5  1984 a      66.3   82.1    1.24 
 6  1988 a      56.1   76.3    1.36 
 7  1997 a      72.8   58.8    0.807
 8  1951 b      73.9   82.7    1.12 
 9  1952 b      93.1   67.7    0.727
10  1955 b      53.5   81.7    1.53 
# … with 40 more rows
```
…
```{r, echo=FALSE, eval=FALSE}
crops_df <- do.call(rbind, lapply(crops, function(x) {
  x %>% select(Item, Area, Element, Year, Value) %>% 
    pivot_wider(names_from = Element, values_from = Value) %>% 
    rename(crop = Item, country = Area, year = Year, 
           harv_area = Area harvested, prod = Production)
}))
crops_df
```

Should see:

```
> crops_df
# A tibble: 342 x 5
   crop  country       year harv_area    prod
   <chr> <chr>        <dbl>     <dbl>   <dbl>
 1 Maize South Africa  1961   4118000 5293000
 2 Maize South Africa  1962   4341000 6024000
 3 Maize South Africa  1963   4339000 6127000
 4 Maize South Africa  1964   4433000 4310000
 5 Maize South Africa  1965   4290000 4608000
 6 Maize South Africa  1966   4241000 5161000
 7 Maize South Africa  1967   4589000 9802000
 8 Maize South Africa  1968   4728000 5358000
 9 Maize South Africa  1969   4387000 5378000
10 Maize South Africa  1970   4418000 6179000
# … with 332 more rows
```
…
