Class8 demo
…
# Split the table into two parts: weather and soil
crop_rmd_weather <- crop_rmd %>% 
  select(label, temperature, humidity, rainfall)
crop_rmd_weather

## # A tibble: 22 x 4
##    label       temperature humidity rainfall
##    <chr>             <dbl>    <dbl>    <dbl>
##  1 apple              22.6     92.3    113. 
##  2 banana             27.4     80.4    105. 
##  3 blackgram          30.0     65.1     67.9
##  4 chickpea           18.9     16.9     80.1
##  5 coconut            27.4     94.8    176. 
##  6 coffee             25.5     58.9    158. 
##  7 cotton             24.0     79.8     80.4
##  8 grapes             23.8     81.9     69.6
##  9 jute               25.0     79.6    175. 
## 10 kidneybeans        20.1     21.6    106. 
## #  with 12 more rows
…
