Geospatial Analysis with R
…
```r
library(tidyverse)
set.seed(1)
price_weight_long <- tibble(
  year = 1951:2000, 
  price = runif(n = length(year), 20, 50),
  weight = (price * 10) * runif(n = length(year), 0.8, 1.2)
) %>% 
  pivot_longer(cols = price:weight, names_to = "element", values_to = "value")
price_weight_long
```

```
## # A tibble: 100 × 3
##     year element value
##    <int> <chr>   <dbl>
##  1  1951 price    28.0
##  2  1951 weight  277. 
##  3  1952 price    31.2
##  4  1952 weight  357. 
##  5  1953 price    37.2
##  6  1953 weight  363. 
##  7  1954 price    47.2
##  8  1954 weight  424. 
##  9  1955 price    26.1
## 10  1955 weight  216. 
## # … with 90 more rows
```
…
---

- Spread `tb_df` so that "Price" and "Element" have their own columns, but exclude the *group* variable

```r
tb_df %>% select(-group) %>% 
  pivot_wider(names_from = element, values_from = value)
```

```
## # A tibble: 50 × 3
##     year Price Weight
##    <dbl> <dbl>  <dbl>
##  1  1951  87.9   96.4
##  2  1952  60.1   79.9
##  3  1953  85.6   78.0
##  4  1954  56.1   76.3
##  5  1955  62.3   99.3
##  6  1956  57.2   75.4
##  7  1957  62.0   84.1
##  8  1958  52.9   80.1
##  9  1959  82.1   61.9
## 10  1960  93.8   62.9
## # … with 40 more rows
```
…
---
- Redo the `pivot_wider` that includes *group*, and then arrange by *group*

```r
tb_df %>% 
  pivot_wider(names_from = element, values_from = value) %>% 
  arrange(group)
```

```
## # A tibble: 50 × 4
##     year group Price Weight
##    <dbl> <chr> <dbl>  <dbl>
##  1  1951 a      87.9   96.4
##  2  1953 a      85.6   78.0
##  3  1960 a      93.8   62.9
##  4  1965 a      90.5   55.2
##  5  1968 a      67.7   77.9
##  6  1969 a      63.5   66.4
##  7  1974 a      73.9   53.8
##  8  1976 a      79.9   60.6
##  9  1986 a      82.0   66.9
## 10  1987 a      99.6   81.5
## # … with 40 more rows
```

---
- Redo the `pivot_wider` that includes *group*, and then arrange by *group* and by *year*, with *year* in descending order

```r
tb_df %>% 
  pivot_wider(names_from = element, values_from = value) %>%  
  arrange(group, desc(year))
```

```
## # A tibble: 50 × 4
##     year group Price Weight
##    <dbl> <chr> <dbl>  <dbl>
##  1  1996 a      79.8   95.2
##  2  1989 a      74.2   92.8
##  3  1987 a      99.6   81.5
##  4  1986 a      82.0   66.9
##  5  1976 a      79.9   60.6
##  6  1974 a      73.9   53.8
##  7  1969 a      63.5   66.4
##  8  1968 a      67.7   77.9
##  9  1965 a      90.5   55.2
## 10  1960 a      93.8   62.9
## # … with 40 more rows
```

---
- Calculate a new column that describes the weight:price ratio, name it `wt_price`

```r
tb_df %>% 
  pivot_wider(names_from = element, values_from = value) %>%  
  mutate(wt_price = Weight / Price)
```

```
## # A tibble: 50 × 5
##     year group Price Weight wt_price
##    <dbl> <chr> <dbl>  <dbl>    <dbl>
##  1  1951 a      87.9   96.4    1.10 
##  2  1952 d      60.1   79.9    1.33 
##  3  1953 a      85.6   78.0    0.912
##  4  1954 b      56.1   76.3    1.36 
##  5  1955 e      62.3   99.3    1.59 
##  6  1956 c      57.2   75.4    1.32 
##  7  1957 b      62.0   84.1    1.36 
##  8  1958 c      52.9   80.1    1.51 
##  9  1959 c      82.1   61.9    0.754
## 10  1960 a      93.8   62.9    0.671
## # … with 40 more rows
```
…
