Geospatial Analysis with R
…
```
## character(0)
```

```r
farmers_env
```

```
## Simple feature collection with 793 features and 3 fields
## Geometry type: POINT
## Dimension:     XY
## Bounding box:  xmin: 24.777 ymin: -18.222 xmax: 33.332 ymax: -8.997
## CRS:           NA
## # A tibble: 793 × 4
##    uuid             geometry  rain district
##  * <chr>             <POINT> <dbl>    <dbl>
##  1 009a8424 (27.256 -16.926)  66.9       11
##  2 00df166f (26.942 -16.504)  72.0       11
##  3 02671a00 (27.254 -16.914)  66.9       11
##  4 03f4dcca (27.237 -16.733)  69.8       11
##  5 042cf7b3 (27.138 -16.807)  75.1       11
##  6 05618404 (26.875 -16.611)  66.1       11
##  7 064beba0 (26.752 -16.862)  58.4       20
##  8 083a46a2 (26.977 -16.765)  70.4       11
##  9 08eb2224 (26.912 -16.248)  54.0       59
## 10 0ab761d6  (27.113 -16.95)  72.4       11
## # … with 783 more rows
```
…
