Geospatial Analysis with R
…
```r
farmers
```

```
## # A tibble: 20,984 × 7
##    uuid         x     y date       season rained planted
##    <chr>    <dbl> <dbl> <date>      <dbl>  <dbl>   <dbl>
##  1 009a8424  27.3 -16.9 2015-11-15      1      0       0
##  2 00df166f  26.9 -16.5 2015-11-15      1      0       0
##  3 02671a00  27.3 -16.9 2015-11-15      1      0       0
##  4 03f4dcca  27.2 -16.7 2015-11-15      1      0       0
##  5 042cf7b3  27.1 -16.8 2015-11-15      1      0       0
##  6 05618404  26.9 -16.6 2015-11-15      1      0       0
##  7 064beba0  26.8 -16.9 2015-11-15      1      1       0
##  8 083a46a2  27.0 -16.8 2015-11-15      1      0       0
##  9 08eb2224  26.9 -16.2 2015-11-15      1      0       0
## 10 0ab761d6  27.1 -17.0 2015-11-15      1      0       0
## # … with 20,974 more rows
```
…
```r
farmers <- st_as_sf(farmers, coords = c("x", "y"))
farmers
```

```
## Simple feature collection with 20984 features and 5 fields
## Geometry type: POINT
## Dimension:     XY
## Bounding box:  xmin: 24.777 ymin: -18.222 xmax: 33.332 ymax: -8.997
## CRS:           NA
## # A tibble: 20,984 × 6
##    uuid     date       season rained planted         geometry
##    <chr>    <date>      <dbl>  <dbl>   <dbl>          <POINT>
##  1 009a8424 2015-11-15      1      0       0 (27.256 -16.926)
##  2 00df166f 2015-11-15      1      0       0 (26.942 -16.504)
##  3 02671a00 2015-11-15      1      0       0 (27.254 -16.914)
##  4 03f4dcca 2015-11-15      1      0       0 (27.237 -16.733)
##  5 042cf7b3 2015-11-15      1      0       0 (27.138 -16.807)
##  6 05618404 2015-11-15      1      0       0 (26.875 -16.611)
##  7 064beba0 2015-11-15      1      1       0 (26.752 -16.862)
##  8 083a46a2 2015-11-15      1      0       0 (26.977 -16.765)
##  9 08eb2224 2015-11-15      1      0       0 (26.912 -16.248)
## 10 0ab761d6 2015-11-15      1      0       0  (27.113 -16.95)
## # … with 20,974 more rows
```
…
