Geospatial Analysis with R
…
```r
crops_df <- do.call(rbind, lapply(crops, function(x) {
  x %>% select(Item, Area, Element, Year, Value) %>% 
    pivot_wider(names = Element, values = Value) %>% 
    rename(crop = Item, country = Area, year = Year, 
           harv_area = Area harvested, prod = Production)
}))
crops_df
```

Should see:

```
> crops_df
# A tibble: 342 x 5
   crop  country       year harv_area    prod
   <chr> <chr>        <dbl>     <dbl>   <dbl>
 1 Maize South Africa  1961   4118000 5293000
 2 Maize South Africa  1962   4341000 6024000
 3 Maize South Africa  1963   4339000 6127000
 4 Maize South Africa  1964   4433000 4310000
 5 Maize South Africa  1965   4290000 4608000
 6 Maize South Africa  1966   4241000 5161000
 7 Maize South Africa  1967   4589000 9802000
 8 Maize South Africa  1968   4728000 5358000
 9 Maize South Africa  1969   4387000 5378000
10 Maize South Africa  1970   4418000 6179000
# … with 332 more rows
```
…
