Geospatial Analysis with R
…
```r
districts <- districts %>% 
  mutate(area = st_area(.) %>% units::set_units("km^2") %>% as.numeric()) 
districts
```

```
## Simple feature collection with 72 features and 2 fields
## Geometry type: POLYGON
## Dimension:     XY
## Bounding box:  xmin: 21.99978 ymin: -18.0751 xmax: 33.6875 ymax: -8.226213
## Geodetic CRS:  GCS_unknown
## # A tibble: 72 × 3
##    distName                                                      geometry   area
##  * <chr>                                                    <POLYGON [°]>  <dbl>
##  1 Chadiza       ((32.3076 -14.3128, 32.31928 -14.22275, 32.28473 -14.16…  2551.
##  2 Chama         ((33.6875 -10.57932, 33.68479 -10.60804, 33.65166 -10.6… 17470.
##  3 Chavuma       ((22.00014 -13.4776, 21.99978 -13.00616, 22.43356 -13.0…  4600.
##  4 Chibombo      ((28.89229 -14.79981, 28.96829 -14.83748, 28.99061 -14.… 13479.
##  5 Chiengi       ((29.1088 -9.079298, 29.05089 -9.1575, 29.00485 -9.1589…  3792.
##  6 Chililabombwe ((28.06755 -12.35262, 28.08029 -12.40576, 28.06825 -12.…  1014.
##  7 Chilubi       ((30.61853 -11.25163, 30.64427 -11.28379, 30.63371 -11.…  4339.
##  8 Chingola      ((27.51766 -12.29848, 27.51231 -12.32162, 27.53024 -12.…  1730.
##  9 Chinsali      ((32.34814 -9.745779, 32.39081 -9.757746, 32.44521 -9.7… 15513.
## 10 Chipata       ((32.95348 -13.26367, 32.9231 -13.35447, 32.9156 -13.40…  6201.
## # … with 62 more rows
```
…
```r
uni2
```

```
## Simple feature collection with 72 features and 3 fields
## Geometry type: MULTIPOLYGON
## Dimension:     XY
## Bounding box:  xmin: 21.99978 ymin: -18.0751 xmax: 33.6875 ymax: -8.226213
## Geodetic CRS:  GCS_unknown
## # A tibble: 72 × 4
##    distName        area    ID                                           geometry
##  * <chr>          <dbl> <dbl>                                 <MULTIPOLYGON [°]>
##  1 Chadiza        2551.     1 (((32.45056 -14.28611, 32.65876 -14.1972, 33.0001…
##  2 Chama         17470.     1 (((33.64154 -10.61133, 33.61895 -10.58417, 33.583…
##  3 Chavuma        4600.     1 (((22.042 -13.50042, 22.07372 -13.49779, 22.13168…
##  4 Chibombo      13479.     1 (((28.87305 -14.79676, 28.8408 -14.75284, 28.8232…
##  5 Chiengi        3792.     1 (((29.14024 -9.039982, 29.16764 -9.04765, 29.1719…
##  6 Chililabombwe  1014.     1 (((28.01253 -12.35119, 27.98945 -12.34021, 27.962…
##  7 Chilubi        4339.     1 (((30.40208 -11.14174, 30.39746 -11.11073, 30.470…
##  8 Chingola       1730.     1 (((27.4628 -12.27935, 27.44569 -12.24882, 27.3945…
##  9 Chinsali      15513.     1 (((32.30827 -9.753086, 32.29436 -9.7779, 32.25595…
## 10 Chipata        6201.     1 (((32.90448 -13.24411, 32.89845 -13.22351, 32.843…
## # … with 62 more rows
```
…
