Geospatial Analysis with R
…
```r
data_tib
```

```
## # A tibble: 5,999 × 20
##    tenant site_id    local                 lat  long site_…¹  Tair Tabove Tbelow
##    <chr>  <chr>      <dttm>              <dbl> <dbl> <chr>   <dbl>  <dbl>  <dbl>
##  1 planet UNLEN_CSP… 2020-06-05 15:00:00  41.2 -96.5 Lincoln  27.4  27.9    28.0
##  2 planet UNLEN_CSP… 2020-06-06 15:00:00  41.2 -96.5 Lincoln  25.5  17.4    24.3
##  3 planet UNLEN_CSP… 2020-06-07 15:00:00  41.2 -96.5 Lincoln  29.6   9.18   27.0
##  4 planet UNLEN_CSP… 2020-06-08 15:00:00  41.2 -96.5 Lincoln  27.7   8.58   25.9
##  5 planet UNLEN_CSP… 2020-06-09 15:00:00  41.2 -96.5 Lincoln  26.7  18.7    26.6
##  6 planet UNLEN_CSP… 2020-06-10 15:00:00  41.2 -96.5 Lincoln  17.1  -2.37   12.3
##  7 planet UNLEN_CSP… 2020-06-11 15:00:00  41.2 -96.5 Lincoln  24.6   4.80   23.6
##  8 planet UNLEN_CSP… 2020-06-12 15:00:00  41.2 -96.5 Lincoln  26.0   5.55   24.3
##  9 planet UNLEN_CSP… 2020-06-13 15:00:00  41.2 -96.5 Lincoln  25.5   5.71   24.0
## 10 planet UNLEN_CSP… 2020-06-14 15:00:00  41.2 -96.5 Lincoln  26.8   7.91   24.8
## # … with 5,989 more rows, 11 more variables: CGDD <dbl>, b1r <dbl>, b2r <dbl>,
## #   b3r <dbl>, b4r <dbl>, b5r <dbl>, b6r <dbl>, b7r <dbl>, NDVI <dbl>,
## #   CropType <chr>, PlantingDate <chr>, and abbreviated variable name
## #   ¹​site_group
```
…
