Geospatial Analysis with R
…
```r
grouped_obs <- data_obs %>% 
  group_by(site_id) %>% 
  summarise(mean_SAVI = mean(SAVI, na.rm = T)) %>% 
  arrange(-mean_SAVI) ## arrange from highest to lowest
grouped_obs
```

```
## # A tibble: 38 × 2
##    site_id         mean_SAVI
##    <chr>               <dbl>
##  1 UNLEN_CSP1_IMZ3     0.618
##  2 UNLTAPS_SDI_02b     0.617
##  3 UNLTAPS_SDI_06a     0.604
##  4 UNLEN_CSP1_IMZ6     0.592
##  5 UNLEN_CSP1_IMZ2     0.578
##  6 UNLEN_CSP1_IMZ5     0.564
##  7 UNLTAPS_SDI_09a     0.540
##  8 UNLTAPS_SDI_16b     0.537
##  9 UNLTAPS_SDI_13a     0.535
## 10 UNLTAPS_SDI_16a     0.534
## # … with 28 more rows
```
…
```
## `summarise()` has grouped output by 'site_id'. You can override using the
## `.groups` argument.
```

```r
grouped_obs
```

```
## # A tibble: 213 × 3
## # Groups:   site_id [38]
##    site_id         month mean_SAVI
##    <chr>           <dbl>     <dbl>
##  1 UNLEN_CSP1_IMZ1     6     0.499
##  2 UNLEN_CSP1_IMZ1     7   NaN    
##  3 UNLEN_CSP1_IMZ2     6     0.462
##  4 UNLEN_CSP1_IMZ2     7     0.657
##  5 UNLEN_CSP1_IMZ2     8     0.617
##  6 UNLEN_CSP1_IMZ2     9     0.532
##  7 UNLEN_CSP1_IMZ3     6     0.532
##  8 UNLEN_CSP1_IMZ3     7     0.691
##  9 UNLEN_CSP1_IMZ3     8     0.648
## 10 UNLEN_CSP1_IMZ3     9     0.550
## # … with 203 more rows
```
…
