Geospatial Analysis with R
…
```r
distinct_farmers <- farmers %>% distinct(uuid, .keep_all = TRUE) 

distinct_farmers <- distinct_farmers %>%  mutate(rain = raster::extract(x = raintot, y = .)) 
distinct_farmers
```

```
## Simple feature collection with 793 features and 6 fields
## Geometry type: POINT
## Dimension:     XY
## Bounding box:  xmin: 24.777 ymin: -18.222 xmax: 33.332 ymax: -8.997
## CRS:           NA
## # A tibble: 793 × 7
##    uuid     date       season rained planted         geometry  rain
##  * <chr>    <date>      <dbl>  <dbl>   <dbl>          <POINT> <dbl>
##  1 009a8424 2015-11-15      1      0       0 (27.256 -16.926)  66.9
##  2 00df166f 2015-11-15      1      0       0 (26.942 -16.504)  72.0
##  3 02671a00 2015-11-15      1      0       0 (27.254 -16.914)  66.9
##  4 03f4dcca 2015-11-15      1      0       0 (27.237 -16.733)  69.8
##  5 042cf7b3 2015-11-15      1      0       0 (27.138 -16.807)  75.1
##  6 05618404 2015-11-15      1      0       0 (26.875 -16.611)  66.1
##  7 064beba0 2015-11-15      1      1       0 (26.752 -16.862)  58.4
##  8 083a46a2 2015-11-15      1      0       0 (26.977 -16.765)  70.4
##  9 08eb2224 2015-11-15      1      0       0 (26.912 -16.248)  54.0
## 10 0ab761d6 2015-11-15      1      0       0  (27.113 -16.95)  72.4
## # … with 783 more rows
```
…
