Geospatial Analysis with R
…
```
## [1] 9.327379
```

---
## `dplyr` syntax

```r
data_tib <- readr::read_csv("~/geospaar/inst/extdata/cdf_corn.csv")
site_summary <- data_tib %>% group_by(site_id) %>% summarise(maxNDVI = max(NDVI))
print(site_summary)
```

```
## # A tibble: 38 × 2
##    site_id         maxNDVI
##    <chr>             <dbl>
##  1 UNLEN_CSP1_IMZ1  NA    
##  2 UNLEN_CSP1_IMZ2   0.891
##  3 UNLEN_CSP1_IMZ3   0.909
##  4 UNLEN_CSP1_IMZ5   0.933
##  5 UNLEN_CSP1_IMZ6   0.892
##  6 UNLTAPS_SDI_01a   0.897
##  7 UNLTAPS_SDI_01b   0.906
##  8 UNLTAPS_SDI_02a   0.912
##  9 UNLTAPS_SDI_02b   0.897
## 10 UNLTAPS_SDI_03b   0.910
## # … with 28 more rows
```
…
---
## Grouping data into another tible 

Create a tibble summarizing data. 

TidyR

```r
data_tib %>% group_by(site) %>%  summarize(count = n(),
                                          max_ndvi = max(NDVI, na.rm = T)
                                          ) 
```

```
## # A tibble: 38 × 3
##    site            count max_ndvi
##    <chr>           <int>    <dbl>
##  1 UNLEN_CSP1_IMZ1    24    0.863
##  2 UNLEN_CSP1_IMZ2   100    0.891
##  3 UNLEN_CSP1_IMZ3    99    0.909
##  4 UNLEN_CSP1_IMZ5   336    0.933
##  5 UNLEN_CSP1_IMZ6   100    0.892
##  6 UNLTAPS_SDI_01a   142    0.897
##  7 UNLTAPS_SDI_01b   142    0.906
##  8 UNLTAPS_SDI_02a   145    0.912
##  9 UNLTAPS_SDI_02b    40    0.897
## 10 UNLTAPS_SDI_03b   562    0.910
## # … with 28 more rows
```
…
---
## More complex column calculations

Finding date of max NDVI

```r
site_data <- data_tib %>% group_by(site) %>%  summarize(count = n(),
                                          max_ndvi = max(NDVI, na.rm = T),
                                          max_ndvi_date = time[which.max(NDVI)]
                                          ) 
site_data
```

```
## # A tibble: 38 × 4
##    site            count max_ndvi max_ndvi_date      
##    <chr>           <int>    <dbl> <dttm>             
##  1 UNLEN_CSP1_IMZ1    24    0.863 2020-06-26 15:00:00
##  2 UNLEN_CSP1_IMZ2   100    0.891 2020-07-08 15:00:00
##  3 UNLEN_CSP1_IMZ3    99    0.909 2020-07-08 15:00:00
##  4 UNLEN_CSP1_IMZ5   336    0.933 2020-08-10 15:00:00
##  5 UNLEN_CSP1_IMZ6   100    0.892 2020-07-08 15:00:00
##  6 UNLTAPS_SDI_01a   142    0.897 2020-07-03 15:00:00
##  7 UNLTAPS_SDI_01b   142    0.906 2020-07-13 15:00:00
##  8 UNLTAPS_SDI_02a   145    0.912 2020-07-13 15:00:00
##  9 UNLTAPS_SDI_02b    40    0.897 2020-07-13 15:00:00
## 10 UNLTAPS_SDI_03b   562    0.910 2020-07-13 15:00:00
## # … with 28 more rows
```
…
