Unit 1 Module 3
…
# ...converted to a tibble
d_tb <- as_tibble(d)
d_tb
#> # A tibble: 1,000 x 2
#>    a          b
#>    <fct>  <dbl>
#>  1 b     10.6  
#>  2 c     13.7  
#>  3 e      7.67 
#>  4 g     19.1  
#>  5 b      2.37 
#>  6 g      0.782
#>  7 g     10.1  
#>  8 e     11.6  
#>  9 e     16.8  
#> 10 a     13.1  
#> #  with 990 more rows
…
