Unit 1 Module 4
…
Now the readr way

maize <- readr::read_csv(f)
#> Rows: 228 Columns: 14
#> -- Column specification ----------------------------------------------------------------------------
#> Delimiter: ","
#> chr (8): Domain Code, Domain, Area, Element, Item, Unit, Flag, Flag Description
#> dbl (6): Area Code, Element Code, Item Code, Year Code, Year, Value
#> 
#> i Use `spec()` to retrieve the full column specification for this data.
#> i Specify the column types or set `show_col_types = FALSE` to quiet this message.
maize
#> # A tibble: 228 x 14
#>    `Domain Code` Domain Area ~1 Area  Eleme~2 Element Item ~3 Item  Year ~4  Year Unit   Value Flag 
#>    <chr>         <chr>    <dbl> <chr>   <dbl> <chr>     <dbl> <chr>   <dbl> <dbl> <chr>  <dbl> <chr>
#>  1 QC            Crops      202 Sout~    5312 Area h~      56 Maize    1961  1961 ha    4.12e6 <NA> 
#>  2 QC            Crops      202 Sout~    5312 Area h~      56 Maize    1962  1962 ha    4.34e6 <NA> 
#>  3 QC            Crops      202 Sout~    5312 Area h~      56 Maize    1963  1963 ha    4.34e6 <NA> 
#>  4 QC            Crops      202 Sout~    5312 Area h~      56 Maize    1964  1964 ha    4.43e6 <NA> 
#>  5 QC            Crops      202 Sout~    5312 Area h~      56 Maize    1965  1965 ha    4.29e6 <NA> 
#>  6 QC            Crops      202 Sout~    5312 Area h~      56 Maize    1966  1966 ha    4.24e6 <NA> 
#>  7 QC            Crops      202 Sout~    5312 Area h~      56 Maize    1967  1967 ha    4.59e6 <NA> 
#>  8 QC            Crops      202 Sout~    5312 Area h~      56 Maize    1968  1968 ha    4.73e6 <NA> 
#>  9 QC            Crops      202 Sout~    5312 Area h~      56 Maize    1969  1969 ha    4.39e6 <NA> 
#> 10 QC            Crops      202 Sout~    5312 Area h~      56 Maize    1970  1970 ha    4.42e6 <NA> 
#> # ... with 218 more rows, 1 more variable: `Flag Description` <chr>, and abbreviated variable names
#> #   1: `Area Code`, 2: `Element Code`, 3: `Item Code`, 4: `Year Code`
…
2.2.3 Reshaping

So we need to reshape the dataset. How? Well, the values Area
harvested and Production in Element are both stored in the
neighboring Value column. We need to make two new columns out
of values in Value, pulling out the ones corresponding to
Element Production into one new column, and Element
Area harvested into another. This is called
spreading, or going from long (or tall) to wide:

# Chunk 6
maize <- maize %>% pivot_wider(names_from = Element, values_from = Value)
# maize <- maize %>% spread(key = Element, value = Value)
maize
#> # A tibble: 114 x 5
#>    Item  Area          Year `Area harvested` Production
#>    <chr> <chr>        <dbl>            <dbl>      <dbl>
#>  1 Maize South Africa  1961          4118000    5293000
#>  2 Maize South Africa  1962          4341000    6024000
#>  3 Maize South Africa  1963          4339000    6127000
#>  4 Maize South Africa  1964          4433000    4310000
#>  5 Maize South Africa  1965          4290000    4608000
#>  6 Maize South Africa  1966          4241000    5161000
#>  7 Maize South Africa  1967          4589000    9802000
#>  8 Maize South Africa  1968          4728000    5358000
#>  9 Maize South Africa  1969          4387000    5378000
#> 10 Maize South Africa  1970          4418000    6179000
#> # ... with 104 more rows
We use tidyr::pivot_wider to do that, specifying the
Element column as the one that contains the names of the new
columns (names_from), and Value as the column from which we
take the values to fill under each column (values_from). Note that
this function replaces the commented-out one below it, which is the
original tidyr::spread function. pivot_wider
is considered more intuitive. The inverse procedure is known as
gathering, where columns are re-organized into
key-value pairs:

# Chunk 7
maize %>% pivot_longer(cols = c("Area harvested", "Production"), 
                       names_to = "Element", values_to = "Value")
# maize %>% gather(key = Element, value = Value, `Area harvested`, Production)
#> # A tibble: 228 x 5
#>    Item  Area          Year Element          Value
#>    <chr> <chr>        <dbl> <chr>            <dbl>
#>  1 Maize South Africa  1961 Area harvested 4118000
#>  2 Maize South Africa  1961 Production     5293000
#>  3 Maize South Africa  1962 Area harvested 4341000
#>  4 Maize South Africa  1962 Production     6024000
#>  5 Maize South Africa  1963 Area harvested 4339000
#>  6 Maize South Africa  1963 Production     6127000
#>  7 Maize South Africa  1964 Area harvested 4433000
#>  8 Maize South Africa  1964 Production     4310000
#>  9 Maize South Africa  1965 Area harvested 4290000
#> 10 Maize South Africa  1965 Production     4608000
#> # ... with 218 more rows
…
2.2.4 Renaming

We still need to clean it some more though. Note in the
pivot_longer operation above how Area harvested
has backticks around it. Thats because it has a space in the variable
name, which is bad practice. We also should remove capitals.

# Chunk 8
maize %>% rename(crop = Item, country = Area, year = Year, 
                 harv_area = `Area harvested`, prod = Production)
#> # A tibble: 114 x 5
#>    crop  country       year harv_area    prod
#>    <chr> <chr>        <dbl>     <dbl>   <dbl>
#>  1 Maize South Africa  1961   4118000 5293000
#>  2 Maize South Africa  1962   4341000 6024000
#>  3 Maize South Africa  1963   4339000 6127000
#>  4 Maize South Africa  1964   4433000 4310000
#>  5 Maize South Africa  1965   4290000 4608000
#>  6 Maize South Africa  1966   4241000 5161000
#>  7 Maize South Africa  1967   4589000 9802000
#>  8 Maize South Africa  1968   4728000 5358000
#>  9 Maize South Africa  1969   4387000 5378000
#> 10 Maize South Africa  1970   4418000 6179000
#> # ... with 104 more rows
…
Okay, so we have just seen a bunch of data tidying steps above. This
is a good point to talk about combining operations. It is advantageous
to combine operations when we have to do several things to get a desired
outcome, but have no need to keep the results of intermediate steps, as
in this casewe have to make several fixes to these data, but only care
about their final tidied version. We can combine our tidying operations
so that they are executed all at once using
dplyr/tidyr pipes:

# Chunk 9
crops[[1]] %>% dplyr::select(Item, Area, Element, Year, Value) %>% 
  pivot_wider(names_from = Element, values_from = Value) %>% 
  rename(crop = Item, country = Area, year = Year, 
         harv_area = `Area harvested`, prod = Production)
#> # A tibble: 114 x 5
#>    crop  country       year harv_area    prod
#>    <chr> <chr>        <dbl>     <dbl>   <dbl>
#>  1 Maize South Africa  1961   4118000 5293000
#>  2 Maize South Africa  1962   4341000 6024000
#>  3 Maize South Africa  1963   4339000 6127000
#>  4 Maize South Africa  1964   4433000 4310000
#>  5 Maize South Africa  1965   4290000 4608000
#>  6 Maize South Africa  1966   4241000 5161000
#>  7 Maize South Africa  1967   4589000 9802000
#>  8 Maize South Africa  1968   4728000 5358000
#>  9 Maize South Africa  1969   4387000 5378000
#> 10 Maize South Africa  1970   4418000 6179000
#> # ... with 104 more rows
…
Now that we have our pipes set up, we can apply them to all three
datasets in an lapply:

# Chunk 10
lapply(crops, function(x) {
  x %>% dplyr::select(Item, Area, Element, Year, Value) %>% 
    pivot_wider(names_from = Element, values_from = Value) %>% 
    rename(crop = Item, country = Area, year = Year, 
           harv_area = `Area harvested`, prod = Production)
})
#> [[1]]
#> # A tibble: 114 x 5
#>    crop  country       year harv_area    prod
#>    <chr> <chr>        <dbl>     <dbl>   <dbl>
#>  1 Maize South Africa  1961   4118000 5293000
#>  2 Maize South Africa  1962   4341000 6024000
#>  3 Maize South Africa  1963   4339000 6127000
#>  4 Maize South Africa  1964   4433000 4310000
#>  5 Maize South Africa  1965   4290000 4608000
#>  6 Maize South Africa  1966   4241000 5161000
#>  7 Maize South Africa  1967   4589000 9802000
#>  8 Maize South Africa  1968   4728000 5358000
#>  9 Maize South Africa  1969   4387000 5378000
#> 10 Maize South Africa  1970   4418000 6179000
#> # ... with 104 more rows
#> 
#> [[2]]
#> # A tibble: 114 x 5
#>    crop    country       year harv_area   prod
#>    <chr>   <chr>        <dbl>     <dbl>  <dbl>
#>  1 Sorghum South Africa  1961    328000 335022
#>  2 Sorghum South Africa  1962    264000 181164
#>  3 Sorghum South Africa  1963    501000 272000
#>  4 Sorghum South Africa  1964    366000 257000
#>  5 Sorghum South Africa  1965    483000 414000
#>  6 Sorghum South Africa  1966    456000 314000
#>  7 Sorghum South Africa  1967    640000 728000
#>  8 Sorghum South Africa  1968    266000 199000
#>  9 Sorghum South Africa  1969    255000 199000
#> 10 Sorghum South Africa  1970    328000 379000
#> # ... with 104 more rows
#> 
#> [[3]]
#> # A tibble: 114 x 5
#>    crop  country       year harv_area    prod
#>    <chr> <chr>        <dbl>     <dbl>   <dbl>
#>  1 Wheat South Africa  1961   1407000  871000
#>  2 Wheat South Africa  1962   1375000  705000
#>  3 Wheat South Africa  1963   1519000  880000
#>  4 Wheat South Africa  1964   1319000 1060000
#>  5 Wheat South Africa  1965   1360000  656000
#>  6 Wheat South Africa  1966   1134000  548000
#>  7 Wheat South Africa  1967   1298000 1077000
#>  8 Wheat South Africa  1968   1670000 1247000
#>  9 Wheat South Africa  1969   1850000 1316000
#> 10 Wheat South Africa  1970   1930000 1396000
#> # ... with 104 more rows
…
2.2.6.1 Binding

Now well bind all three tibbles into a single large
one:

# Chunk 11
crops_df <- do.call(rbind, lapply(crops, function(x) {
  x %>% dplyr::select(Item, Area, Element, Year, Value) %>% 
    pivot_wider(names_from = Element, values_from = Value) %>% 
    rename(crop = Item, country = Area, year = Year, 
           harv_area = `Area harvested`, prod = Production)
}))
crops_df
#> # A tibble: 342 x 5
#>    crop  country       year harv_area    prod
#>    <chr> <chr>        <dbl>     <dbl>   <dbl>
#>  1 Maize South Africa  1961   4118000 5293000
#>  2 Maize South Africa  1962   4341000 6024000
#>  3 Maize South Africa  1963   4339000 6127000
#>  4 Maize South Africa  1964   4433000 4310000
#>  5 Maize South Africa  1965   4290000 4608000
#>  6 Maize South Africa  1966   4241000 5161000
#>  7 Maize South Africa  1967   4589000 9802000
#>  8 Maize South Africa  1968   4728000 5358000
#>  9 Maize South Africa  1969   4387000 5378000
#> 10 Maize South Africa  1970   4418000 6179000
#> # ... with 332 more rows
…
#> # A tibble: 2 x 4
#>   crop  country       year yield
#>   <chr> <chr>        <dbl> <dbl>
#> 1 Maize South Africa  1961  1.29
#> 2 Maize South Africa  1962  1.39
# 
# #2
crop_ylds <- left_join(x = crops_df, y = yields, 
                       by = c("crop", "country", "year"))
#
# 3
crop_ylds <- left_join(crops_df, yields) 
#> Joining, by = c("crop", "country", "year")
crop_ylds
#> # A tibble: 342 x 6
#>    crop  country       year harv_area    prod yield
#>    <chr> <chr>        <dbl>     <dbl>   <dbl> <dbl>
#>  1 Maize South Africa  1961   4118000 5293000 1.29 
#>  2 Maize South Africa  1962   4341000 6024000 1.39 
#>  3 Maize South Africa  1963   4339000 6127000 1.41 
#>  4 Maize South Africa  1964   4433000 4310000 0.972
#>  5 Maize South Africa  1965   4290000 4608000 1.07 
#>  6 Maize South Africa  1966   4241000 5161000 1.22 
#>  7 Maize South Africa  1967   4589000 9802000 2.14 
#>  8 Maize South Africa  1968   4728000 5358000 1.13 
#>  9 Maize South Africa  1969   4387000 5378000 1.23 
#> 10 Maize South Africa  1970   4418000 6179000 1.40 
#> # ... with 332 more rows
…
We are taking the same random sample in each example above, ordering
the resulting outputs differently in each case: #1 orders ascending by
year (oldest to most recent); #2 orders ascending first by country than
by year; #3 ascending by crop, country, and year; #4 by ascending by
crop and country, but descending by year (note the -
sign).

We can also sort our crop dataset:

# Chunk 18
# #1
crops_df %>% arrange(desc(year), country, desc(crop))
#> # A tibble: 342 x 5
#>    crop    country       year harv_area     prod
#>    <chr>   <chr>        <dbl>     <dbl>    <dbl>
#>  1 Wheat   South Africa  2017    491600  1535000
#>  2 Sorghum South Africa  2017     42350   152000
#>  3 Maize   South Africa  2017   2628600 16820000
#>  4 Wheat   Zambia        2017     26741   193713
#>  5 Sorghum Zambia        2017     27469    17337
#>  6 Maize   Zambia        2017   1433944  3606549
#>  7 Wheat   South Africa  2016    508365  1910000
#>  8 Sorghum South Africa  2016     48500    70500
#>  9 Maize   South Africa  2016   1946750  7778500
#> 10 Wheat   Zambia        2016     24170   159533
#> # ... with 332 more rows
…
The last thing we will look at in this section is mutation,
which uses the mutate function. That is, we use it to
change the data.frame tibble by either altering existing
variables or adding new ones. This brings us back to our
crops_df. In Chunk 16 we created a new yields
tibble so that we could demonstrate a merge with our
crops_df. That was an entirely unnecessary operation,
because if I wanted to create a separate yield column for
crops_df, I could have just done this:

# Chunk 19
crop_ylds <- crops_df %>% mutate(yield = prod / harv_area)
crop_ylds
#> # A tibble: 342 x 6
#>    crop  country       year harv_area    prod yield
#>    <chr> <chr>        <dbl>     <dbl>   <dbl> <dbl>
#>  1 Maize South Africa  1961   4118000 5293000 1.29 
#>  2 Maize South Africa  1962   4341000 6024000 1.39 
#>  3 Maize South Africa  1963   4339000 6127000 1.41 
#>  4 Maize South Africa  1964   4433000 4310000 0.972
#>  5 Maize South Africa  1965   4290000 4608000 1.07 
#>  6 Maize South Africa  1966   4241000 5161000 1.22 
#>  7 Maize South Africa  1967   4589000 9802000 2.14 
#>  8 Maize South Africa  1968   4728000 5358000 1.13 
#>  9 Maize South Africa  1969   4387000 5378000 1.23 
#> 10 Maize South Africa  1970   4418000 6179000 1.40 
#> # ... with 332 more rows
…
